<?xml version="1.0" encoding="UTF-8" standalone="no"?>
<svg width="23px" height="24px" viewBox="0 0 23 24" version="1.1" xmlns="http://www.w3.org/2000/svg" xmlns:xlink="http://www.w3.org/1999/xlink" xmlns:sketch="http://www.bohemiancoding.com/sketch/ns">
    <!-- Generator: Sketch 3.3.3 (12072) - http://www.bohemiancoding.com/sketch -->
    <title>Group</title>
    <desc>Created with Sketch.</desc>
    <defs></defs>
    <g id="Page-1" stroke="none" stroke-width="1" fill="none" fill-rule="evenodd" sketch:type="MSPage">
        <g id="Group" sketch:type="MSLayerGroup" stroke="#DEDEDE">
            <rect id="checkbox" stroke-width="2" sketch:type="MSShapeGroup" x="2" y="2" width="19" height="20"></rect>
            <path d="M1.5,0.5 L22.5,0.5" id="Line" sketch:type="MSShapeGroup"></path>
            <path d="M22.5,1.5 L22.5,23.5" id="Line" sketch:type="MSShapeGroup"></path>
            <path d="M22.5,23.5 L0.5,23.5" id="Line" sketch:type="MSShapeGroup"></path>
            <path d="M0.5,0.5 L0.5,22.5" id="Line" sketch:type="MSShapeGroup"></path>
        </g>
    </g>
</svg>