<?xml version="1.0" encoding="UTF-8" standalone="no"?>
<svg width="10px" height="11px" viewBox="0 0 10 11" version="1.1" xmlns="http://www.w3.org/2000/svg" xmlns:xlink="http://www.w3.org/1999/xlink" xmlns:sketch="http://www.bohemiancoding.com/sketch/ns">
    <!-- Generator: Sketch 3.3.3 (12072) - http://www.bohemiancoding.com/sketch -->
    <title>Shape</title>
    <desc>Created with Sketch.</desc>
    <defs></defs>
    <g id="Page-1" stroke="none" stroke-width="1" fill="none" fill-rule="evenodd" sketch:type="MSPage">
        <g id="stuff" sketch:type="MSArtboardGroup" transform="translate(-1206.000000, -868.000000)" fill="#333333">
            <path d="M1215.652,876.714503 L1212.922,873.594503 L1215.652,870.473503 C1216.116,870.009503 1216.116,869.257503 1215.652,868.793503 C1215.188,868.329503 1214.435,868.329503 1213.971,868.793503 L1211.346,871.793503 L1208.721,868.793503 C1208.257,868.329503 1207.505,868.329503 1207.04,868.793503 C1206.576,869.257503 1206.576,870.009503 1207.04,870.473503 L1209.77,873.594503 L1207.04,876.714503 C1206.576,877.178503 1206.576,877.930503 1207.04,878.394503 C1207.504,878.858503 1208.256,878.858503 1208.721,878.394503 L1211.346,875.394503 L1213.971,878.394503 C1214.436,878.858503 1215.188,878.858503 1215.652,878.394503 C1216.116,877.930503 1216.115,877.178503 1215.652,876.714503 L1215.652,876.714503 Z" id="Shape" sketch:type="MSShapeGroup"></path>
        </g>
    </g>
</svg>