<?xml version="1.0" encoding="UTF-8" standalone="no"?>
<svg width="30px" height="22px" viewBox="0 0 30 22" version="1.1" xmlns="http://www.w3.org/2000/svg" xmlns:xlink="http://www.w3.org/1999/xlink" xmlns:sketch="http://www.bohemiancoding.com/sketch/ns">
    <!-- Generator: Sketch 3.3.3 (12072) - http://www.bohemiancoding.com/sketch -->
    <title>Shape</title>
    <desc>Created with Sketch.</desc>
    <defs></defs>
    <g id="Page-1" stroke="none" stroke-width="1" fill="none" fill-rule="evenodd" sketch:type="MSPage">
        <g id="stuff" sketch:type="MSArtboardGroup" transform="translate(-1312.000000, -857.000000)" fill="#FFFFFF">
            <path d="M1339.54211,866.202503 L1314.45789,866.202503 C1313.30311,866.202503 1312.36789,867.137726 1312.36789,868.292503 C1312.36789,869.447281 1313.30311,870.382503 1314.45789,870.382503 L1339.54211,870.382503 C1340.69689,870.382503 1341.63,869.447281 1341.63,868.292503 C1341.63,867.137726 1340.69689,866.202503 1339.54211,866.202503 L1339.54211,866.202503 Z M1314.46,862.022503 L1339.54422,862.022503 C1340.699,862.022503 1341.63211,861.087281 1341.63211,859.932503 C1341.63211,858.777726 1340.699,857.842504 1339.54422,857.842504 L1314.46,857.842504 C1313.30522,857.842504 1312.37,858.777726 1312.37,859.932503 C1312.37,861.087281 1313.30522,862.022503 1314.46,862.022503 L1314.46,862.022503 Z M1339.54211,874.562503 L1314.45789,874.562503 C1313.30311,874.562503 1312.36789,875.497725 1312.36789,876.652503 C1312.36789,877.807281 1313.30311,878.742503 1314.45789,878.742503 L1339.54211,878.742503 C1340.69689,878.742503 1341.63,877.807281 1341.63,876.652503 C1341.63,875.497725 1340.69689,874.562503 1339.54211,874.562503 L1339.54211,874.562503 Z" id="Shape" sketch:type="MSShapeGroup"></path>
        </g>
    </g>
</svg>